1|Абрикос|214.9|43
2|Абрикосы|197|39
3|Айва|159.6|32
4|Апельсины|198.8|31
5|Арбуз|233.8|46
6|Бананы|88.3|47
7|Гранат|174.9|48
8|Грейпфрут|79.6|10
9|Груша|104.9|31
10|Груша Конференция|161.3|8
11|Дыня|79.6|30
12|Дыня Канталупа|181.7|37
13|Инжир|225.9|15
14|Киви|122|7
15|Лайм|235.5|31
16|Лимон без кожуры|220.2|29
17|Мандарины|123.2|45
18|Маслины|173|24
19|Нектарины|66|26
20|Оливки зелёные|81.3|35
21|Персик без косточек|82.5|37
22|Персики|215.5|11
23|Слива|145.5|19
24|Хурма|200.3|12
25|Цедра апельсина кожура|70.7|24
26|Цедра лимона кожура|197.2|12
27|Яблоки|157.9|48
28|Яблоки запечённые|182.5|24
